{
	"request": {
		"method": "POST",
		"urlPathPattern": "/connect/browserless/auth"
		},
	"response": {
		"status": 200,
		"bodyFileName": "browserlessauth.json",
		"headers": {
			"Content-Type": "application/json"
		},
		"transformers": ["body-transformer"]
	}
}