{
	"request": {
		"method": "POST",
		"urlPathPattern": "/discover/([0-9]*)"
		},
	"response": {
		"status": 200,
		"bodyFileName": "discoverResponse.json",
		"headers": {
			"Content-Type": "application/json"
		},
		"transformers": ["body-transformer"]
	}
}