{
	"request": {
		"method": "GET",
		"urlPathPattern": "/consents/([0-9]*)"
		
	},
	"response": {
		"status": 200,
		"bodyFileName": "getConsentbyID.json",
		"headers": {
			"Content-Type": "application/json"
		},
		"transformers": ["body-transformer"]
	}
}