{
	"request": {
		"method": "GET",
		"urlPath": "/transform"
	},
	"response": {
		"status": 200,
		"body": "{\"randomInteger\": \"$(!RandomInteger)\"}",
		"headers": {
			"Content-Type": "application/json"
		},
		"transformers": ["body-transformer"]
	}
}