{
  "connections": [
    {
      "id": 152486,
      "channel": "OpenBanking",
      "discoverId": "cd2cbf02-c903-425c-88b0-7d3dc09a98e8",
      "itemId": "3920009787",
      "ownedItemId": 919681,
      "consentId": 267980,
      "softwareId": "3dcCQpWuzdaoMpQQsubRBS",
      "schedule": "QuarterDaily",
      "scope": "FixedPeriod",
      "createdDate": "2019-06-20T11:11:02.2585423+00:00",
      "lastRun": "2019-06-20T11:11:02.1960432+00:00",
      "nextRun": "2019-06-20T17:44:00.1960432+00:00",
      "state": "Active"
    },
    {
      "id": 152487,
      "channel": "OpenBanking",
      "discoverId": "cd2cbf02-c903-425c-88b0-7d3dc09a98e8",
      "itemId": "2392639759",
      "ownedItemId": 919683,
      "consentId": 267980,
      "softwareId": "3dcCQpWuzdaoMpQQsubRBS",
      "schedule": "QuarterDaily",
      "scope": "FixedPeriod",
      "createdDate": "2019-06-20T11:11:02.2897926+00:00",
      "lastRun": "2019-06-20T11:11:02.1960432+00:00",
      "nextRun": "2019-06-20T17:40:44.1960432+00:00",
      "state": "Active"
    },
    {
      "id": 152488,
      "channel": "OpenBanking",
      "discoverId": "cd2cbf02-c903-425c-88b0-7d3dc09a98e8",
      "itemId": "2757513060",
      "ownedItemId": 919682,
      "consentId": 267980,
      "softwareId": "3dcCQpWuzdaoMpQQsubRBS",
      "schedule": "QuarterDaily",
      "scope": "FixedPeriod",
      "createdDate": "2019-06-20T11:11:02.274167+00:00",
      "lastRun": "2019-06-20T11:11:02.1960432+00:00",
      "nextRun": "2019-06-20T18:04:13.1960432+00:00",
      "state": "Active"
    },
    {
      "id": 152489,
      "channel": "OpenBanking",
      "discoverId": "cd2cbf02-c903-425c-88b0-7d3dc09a98e8",
      "itemId": "3629785053",
      "ownedItemId": 919680,
      "consentId": 267980,
      "softwareId": "3dcCQpWuzdaoMpQQsubRBS",
      "schedule": "QuarterDaily",
      "scope": "FixedPeriod",
      "createdDate": "2019-06-20T11:11:02.3522939+00:00",
      "lastRun": "2019-06-20T11:11:02.1960432+00:00",
      "nextRun": "2019-06-20T17:15:37.1960432+00:00",
      "state": "Active"
    }
  ],
  "consents": [
    {
      "id": 267980,
      "date": "2019-06-20T11:10:59.344+00:00",
      "mechanism": "Website",
      "duration": "FixedPeriod",
      "expirationDate": "2019-09-18T11:10:59.344+00:00",
      "status": "Active",
      "partyId": 1713854,
      "serviceId": 380628,
      "externalId": "sMWcadUbSNTv",
      "participants": [
        {
          "type": "DataProvider",
          "name": "LoremBank",
          "assetIdentifiers": [
            {
              "name": "ProviderId",
              "value": "8888889"
            },
            {
              "name": "AccountId",
              "value": "2757513060"
            },
            {
              "name": "AccountId",
              "value": "2392639759"
            },
            {
              "name": "AccountId",
              "value": "3629785053"
            },
            {
              "name": "AccountId",
              "value": "3920009787"
            }
          ]
        }
      ]
    }
  ],
  "ownedItems": [
    {
      "sortCode": "601613",
      "payments": [],
      "incomes": [],
      "rates": [],
      "balances": [
        {
          "balanceType": "InterimAvailable",
          "value": 1230.65,
          "creditLines": []
        },
        {
          "balanceType": "InterimBooked",
          "value": 1233.72,
          "creditLines": []
        }
      ],
      "creditHistories": [],
      "iban": "GB29LORB60161331926819",
      "value": 1230.65,
      "productOfferingId": 156664,
      "offeringType": "Current Account",
      "providerName": "LoremBank",
      "providerId": 8888889,
      "offeringId": 156664,
      "id": 919680,
      "friendlyName": "",
      "reference": "31926819",
      "systemLastUpdateDate": "2019-06-20T11:11:03.957Z",
      "systemMatchReference": "3629785053",
      "accountReference": "31926819",
      "itemValidDate": "2019-06-20T11:11:03.957Z",
      "itemValidMethod": "BulkData",
      "createdDate": "2019-06-20T11:11:02.117Z",
      "currencyCode": "GBP",
      "childItems": [],
      "interestedParties": [
        {
          "partyId": 1713854,
          "id": 868177,
          "$type": "Owner"
        }
      ],
      "$type": "BankAccount"
    },
    {
      "sortCode": "458763",
      "payments": [],
      "incomes": [],
      "rates": [],
      "balances": [
        {
          "balanceType": "InterimAvailable",
          "value": 658.41,
          "creditLines": []
        },
        {
          "balanceType": "OpeningAvailable",
          "value": 671.14,
          "creditLines": []
        }
      ],
      "creditHistories": [],
      "value": 658.41,
      "productOfferingId": 156665,
      "offeringType": "Business Current Account",
      "providerName": "LoremBank",
      "providerId": 8888889,
      "offeringId": 156665,
      "id": 919681,
      "friendlyName": "Savings",
      "reference": "29125465",
      "systemLastUpdateDate": "2019-06-20T11:11:03.457Z",
      "systemMatchReference": "3920009787",
      "accountReference": "29125465",
      "itemValidDate": "2019-06-20T11:11:03.457Z",
      "itemValidMethod": "BulkData",
      "createdDate": "2019-06-20T11:11:02.127Z",
      "currencyCode": "GBP",
      "marketsName": "Platinum Current Account",
      "childItems": [],
      "interestedParties": [
        {
          "partyId": 1713854,
          "id": 868178,
          "$type": "Owner"
        }
      ],
      "$type": "BankAccount"
    },
    {
      "sortCode": "523693",
      "payments": [],
      "incomes": [],
      "rates": [],
      "balances": [
        {
          "balanceType": "InterimAvailable",
          "value": 1230.54,
          "creditLines": []
        },
        {
          "balanceType": "InterimBooked",
          "value": 1235.52,
          "creditLines": []
        }
      ],
      "creditHistories": [],
      "value": 1230.54,
      "productOfferingId": 156664,
      "offeringType": "Current Account",
      "providerName": "LoremBank",
      "providerId": 8888889,
      "offeringId": 156664,
      "id": 919682,
      "friendlyName": "Everyday Saver",
      "reference": "21421236",
      "systemLastUpdateDate": "2019-06-20T11:11:03.113Z",
      "systemMatchReference": "2757513060",
      "accountReference": "21421236",
      "itemValidDate": "2019-06-20T11:11:03.113Z",
      "itemValidMethod": "BulkData",
      "createdDate": "2019-06-20T11:11:02.147Z",
      "currencyCode": "GBP",
      "childItems": [],
      "interestedParties": [
        {
          "partyId": 1713854,
          "id": 868179,
          "$type": "Owner"
        }
      ],
      "$type": "BankAccount"
    },
    {
      "sortCode": "458763",
      "payments": [],
      "incomes": [],
      "rates": [],
      "balances": [
        {
          "balanceType": "InterimAvailable",
          "value": 562.21,
          "creditLines": []
        },
        {
          "balanceType": "InterimBooked",
          "value": 565.34,
          "creditLines": []
        }
      ],
      "creditHistories": [],
      "value": 562.21,
      "productOfferingId": 156665,
      "offeringType": "Business Current Account",
      "providerName": "LoremBank",
      "providerId": 8888889,
      "offeringId": 156665,
      "id": 919683,
      "friendlyName": "Current Account",
      "reference": "26536465",
      "systemLastUpdateDate": "2019-06-20T11:11:08.537Z",
      "systemMatchReference": "2392639759",
      "accountReference": "26536465",
      "itemValidDate": "2019-06-20T11:11:08.537Z",
      "itemValidMethod": "BulkData",
      "createdDate": "2019-06-20T11:11:02.143Z",
      "currencyCode": "GBP",
      "marketsName": "Super Saver",
      "childItems": [],
      "interestedParties": [
        {
          "partyId": 1713854,
          "id": 868180,
          "$type": "Owner"
        }
      ],
      "$type": "BankAccount"
    }
  ]
}